ISD.VN.20191-07
Tổng hợp review
Homework Week 7
---------------
Reviewer: Nguyễn Đình Minh
review for: Đỗ Quốc Nam
Content:

---------------
Reviewer: Vũ Đức Nguyễn
review for: Đỗ Thúy Nga
Content:

---------------
Reviewer: Nguyễn Trọng Nghĩa
review for: Nguyễn Đình Minh
Content:

---------------
Reviewer: Đỗ Thúy Nga
review for: Nguyễn Trọng Nghĩa
Content:

---------------
Reviewer: Đỗ Quốc Nam
review for: Vũ Đức Nguyễn
Content:

---------------
